Location,Epsilon,Rewards,Q values,Actions,Error Hit
Albury,0.2,24815,"[59.5590062111801, 22.476190476190474, 44.491525423728824, -3.7500000000000036]","[322, 21, 59, 16]"
Albury,0.3,23466,"[62.0, 29.428571428571423, 58.08823529411763, 54.615384615384606]","[121, 28, 136, 52]"
Albury,0.4,24123,"[62.0, 40.51428571428571, 60.47008547008543, 59.02439024390243]","[155, 35, 117, 41]"
Albury,0.5,24475,"[62.0, 34.1860465116279, 57.06521739130435, 58.46153846153848]","[150, 43, 46, 104]"
Albury,0.7,19922,"[60.449704142011825, 50.42622950819674, 31.159420289855067, 16.11940298507463]","[169, 61, 69, 67]"
BadgerysCreek,0.2,24475,"[58.88095238095242, 29.81818181818182, 48.170731707317074, 30.666666666666657]","[336, 22, 41, 15]"
BadgerysCreek,0.3,22899,"[58.563934426229544, 18.88235294117647, 31.61764705882353, 26.285714285714285]","[305, 34, 34, 35]"
BadgerysCreek,0.4,22144,"[56.61643835616439, 44.648648648648646, 29.78723404255319, 13.333333333333337]","[292, 37, 47, 27]"
BadgerysCreek,0.5,21660,"[54.44230769230771, 51.142857142857146, 55.47945205479455, 8.837209302325581]","[208, 49, 73, 43]"
BadgerysCreek,0.7,20733,"[57.5593220338983, 44.774193548387125, 66.57303370786515, 38.125]","[118, 62, 89, 64]"
Cobar,0.2,20683,"[57.3074626865672, 25.60000000000001, 42.04545454545455, -104.61538461538461]","[335, 50, 22, 26]"
Cobar,0.3,21030,"[56.993630573248446, 23.6, 32.95454545454546, -48.1818181818182]","[314, 40, 44, 22]"
Cobar,0.4,17873,"[57.03787878787882, 16.923076923076927, 26.35135135135135, -33.46938775510204]","[264, 52, 37, 49]"
Cobar,0.5,16944,"[55.55737704918034, -9.859649122807015, 40.47619047619049, -38.8888888888889]","[244, 57, 63, 36]"
Cobar,0.7,16032,"[52.75294117647061, 13.940298507462687, 44.38202247191013, -49.38775510204082]","[170, 67, 89, 49]"
CoffsHarbour,0.2,33554,"[62.0, 34.36363636363636, 43.74999999999999, 117.44075829383885]","[8, 11, 16, 211]"
CoffsHarbour,0.3,33425,"[45.625, 60.90909090909091, 13.709677419354842, 127.08333333333337]","[16, 11, 31, 192]"
CoffsHarbour,0.4,30683,"[17.085714285714282, 74.3103448275862, 27.38095238095238, 117.1974522292994]","[35, 58, 21, 157]"
CoffsHarbour,0.5,26474,"[49.52380952380953, 78.75294117647057, 66.66666666666664, 67.85714285714285]","[42, 85, 87, 84]"
CoffsHarbour,0.7,29647,"[30.809523809523807, 67.13207547169812, 52.55102040816326, 112.37410071942449]","[42, 53, 49, 139]"
Moree,0.2,22921,"[57.64542936288084, 30.92857142857143, 25.000000000000004, -30.909090909090914]","[361, 28, 21, 22]"
Moree,0.3,21432,"[57.85770750988142, 31.33333333333334, 50.7246376811594, -10.303030303030303]","[253, 33, 69, 33]"
Moree,0.4,20915,"[59.19786096256685, 52.432432432432456, 51.05633802816904, -13.142857142857139]","[187, 74, 71, 35]"
Moree,0.5,17565,"[59.005714285714284, 40.279999999999994, 46.802325581395344, -30.769230769230774]","[175, 50, 86, 52]"
Moree,0.7,16817,"[54.06060606060606, 52.710526315789494, 48.61111111111107, -38.775510204081634]","[132, 76, 90, 49]"
Newcastle,0.2,25707,"[57.82802547770701, 52.233333333333356, 38.33333333333333, 41.599999999999994]","[314, 60, 15, 25]"
Newcastle,0.3,25137,"[38.181818181818166, 61.793103448275865, 80.02450980392156, 50.37037037037037]","[33, 29, 204, 27]"
Newcastle,0.4,24956,"[59.43137254901962, 25.257142857142853, 98.72881355932202, 39.333333333333336]","[102, 35, 118, 60]"
Newcastle,0.5,25708,"[60.746411483253596, 46.7142857142857, 26.249999999999996, 78.37837837837839]","[209, 42, 40, 74]"
Newcastle,0.7,24170,"[62.0, 60.643678160919535, 50.0, 71.38461538461539]","[117, 87, 64, 65]"
NorahHead,0.2,34964,"[62.0, 54.70588235294118, 86.11111111111111, 139.8969072164947]","[12, 17, 18, 194]"
NorahHead,0.3,36357,"[48.21052631578947, 67.57142857142857, 90.21739130434781, 150.37037037037038]","[19, 14, 23, 189]"
NorahHead,0.4,30674,"[62.0, 85.69767441860466, 83.33333333333333, 126.94214876033057]","[37, 86, 27, 121]"
NorahHead,0.5,32996,"[62.0, 70.09999999999998, 98.52941176470588, 150.47619047619048]","[31, 40, 34, 147]"
NorahHead,0.7,31340,"[62.0, 84.16, 84.14634146341463, 126.10687022900765]","[51, 50, 41, 131]"
NorfolkIsland,0.2,36598,"[43.285714285714285, 92.0, 73.68421052631578, 176.608187134503]","[14, 26, 19, 171]"
NorfolkIsland,0.3,28447,"[62.0, 78.00000000000001, 106.97969543147212, 89.47368421052632]","[24, 28, 197, 19]"
NorfolkIsland,0.4,35526,"[62.0, 67.61538461538463, 114.03508771929829, 176.14814814814815]","[24, 26, 57, 135]"
NorfolkIsland,0.5,32839,"[62.0, 84.70000000000002, 93.6046511627907, 160.75187969924812]","[33, 40, 43, 133]"
NorfolkIsland,0.7,34095,"[48.900000000000006, 85.9166666666667, 91.98113207547173, 180.68376068376065]","[40, 48, 53, 117]"
Penrith,0.2,23216,"[57.787781350482305, 26.93333333333333, 40.9090909090909, 23.333333333333332]","[311, 15, 44, 36]"
Penrith,0.3,22370,"[55.182156133829, 28.13793103448276, 45.53571428571428, 24.615384615384617]","[269, 29, 56, 39]"
Penrith,0.4,21003,"[56.365591397849464, 2.4864864864864864, 28.488372093023255, 18.0952380952381]","[279, 37, 43, 42]"
Penrith,0.5,20793,"[55.640776699029125, 36.653846153846146, 49.61538461538461, 29.166666666666654]","[206, 52, 65, 48]"
Penrith,0.7,16757,"[51.01796407185628, 44.033333333333346, 45.63492063492062, -11.282051282051285]","[167, 60, 63, 78]"
Richmond,0.2,24082,"[62.0, 70.65346534653467, 63.04347826086958, 54.44444444444444]","[90, 202, 23, 18]"
Richmond,0.3,23387,"[60.10144927536232, 59.93749999999999, 83.9583333333333, 23.68421052631579]","[138, 32, 120, 38]"
Richmond,0.4,23756,"[54.256157635467986, 58.34482758620688, 84.40860215053765, 31.250000000000004]","[203, 29, 93, 32]"
Richmond,0.5,21511,"[56.01826484018267, 38.869565217391305, 60.32608695652174, 39.99999999999999]","[219, 46, 46, 57]"
Richmond,0.7,20547,"[55.60975609756098, 51.59375, 85.9243697478991, -6.2962962962962985]","[82, 64, 119, 54]"
Sydney,0.2,27357,"[62.0, -24.79999999999999, 102.31707317073169, 83.19999999999999]","[27, 15, 205, 25]"
Sydney,0.3,26338,"[58.14705882352941, 56.96, 100.00000000000001, 67.71929824561403]","[68, 25, 137, 57]"
Sydney,0.4,30452,"[45.09677419354839, 70.13793103448273, 95.91836734693875, 148.7128712871288]","[31, 29, 98, 101]"
Sydney,0.5,27484,"[62.0, 50.941176470588225, 64.63414634146342, 109.72477064220183]","[98, 51, 41, 109]"
Sydney,0.7,27048,"[53.81249999999999, 63.3968253968254, 103.93258426966294, 90.13333333333334]","[64, 63, 89, 75]"
Cairns,0.2,26190,"[9.6, 31.0, 9.999999999999998, 71.74887892376682]","[15, 16, 15, 223]"
Cairns,0.3,26384,"[31.769230769230766, -3.100000000000001, 41.66666666666667, 79.09999999999994]","[26, 20, 24, 200]"
Cairns,0.4,23113,"[3.7777777777777772, 37.568345323741006, 45.51282051282051, 99.77777777777777]","[36, 139, 39, 90]"
Cairns,0.5,24602,"[34.42105263157894, 38.90434782608696, 41.02564102564103, 95.3398058252427]","[38, 115, 39, 103]"
Cairns,0.7,23568,"[33.41818181818181, 17.54716981132075, 60.176991150442475, 96.00000000000001]","[55, 53, 113, 75]"
